…
``` r
# list all locations
our_locations <- sq_list_locations()
our_transactions <- sq_list_transactions(location = our_locations$id[2], 
                                         begin_time = as.Date('2019-07-09'), 
                                         end_time = as.Date('2019-07-10'))
our_transactions
#> # A tibble: 197 x 9
#>    id    location_id created_at tenders product client_id refunds
#>    <chr> <chr>       <chr>      <list>  <chr>   <chr>     <list> 
#>  1 bu0b… DRDCJ2X8E2… 2019-07-1… <list … REGIST… BA6D16E9… <NULL> 
#>  2 7qmX… DRDCJ2X8E2… 2019-07-0… <list … REGIST… B3ACC564… <NULL> 
#>  3 fEg0… DRDCJ2X8E2… 2019-07-0… <list … REGIST… 117F4A34… <NULL> 
#>  4 rMhg… DRDCJ2X8E2… 2019-07-0… <list … REGIST… 3CC0E3F7… <NULL> 
#>  5 xFqx… DRDCJ2X8E2… 2019-07-0… <list … REGIST… 3E4CE781… <NULL> 
#>  6 JVGY… DRDCJ2X8E2… 2019-07-0… <list … REGIST… 1739D76B… <NULL> 
#>  7 9nKc… DRDCJ2X8E2… 2019-07-0… <list … REGIST… F511D38E… <NULL> 
#>  8 JPvy… DRDCJ2X8E2… 2019-07-0… <list … REGIST… F38E64B3… <NULL> 
#>  9 lH4U… DRDCJ2X8E2… 2019-07-0… <list … REGIST… 6ED7522B… <NULL> 
#> 10 9joO… DRDCJ2X8E2… 2019-07-0… <list … REGIST… 0DF58C0E… <NULL> 
#> # … with 187 more rows, and 2 more variables: reference_id <chr>,
#> #   order_id <chr>
```
…
``` r
# list customers created in the last 30 days
created_start <- format(Sys.Date() - 30, '%Y-%m-%dT00:00:00-00:00')
created_end <- format(Sys.Date(), '%Y-%m-%dT00:00:00-00:00')
our_customers <- sq_search_customers(query = list(filter=
                                                    list(created_at=
                                                           list(start_at=created_start,
                                                                end_at=created_end))))
our_customers$given_name <- "{HIDDEN}"
our_customers$family_name <- "{HIDDEN}"
our_customers %>% select(id, created_at, updated_at, 
                         given_name, family_name, preferences, groups)
#> # A tibble: 3,245 x 7
#>    id      created_at  updated_at given_name family_name preferences groups
#>    <chr>   <chr>       <chr>      <chr>      <chr>       <list>      <list>
#>  1 K498FM… 2019-06-20… 2019-06-3… {HIDDEN}   {HIDDEN}    <named lis… <list…
#>  2 3AXCBD… 2019-07-10… 2019-07-1… {HIDDEN}   {HIDDEN}    <named lis… <list…
#>  3 CAA1WX… 2019-07-05… 2019-07-0… {HIDDEN}   {HIDDEN}    <named lis… <list…
#>  4 PRFAB2… 2019-06-19… 2019-06-1… {HIDDEN}   {HIDDEN}    <named lis… <list…
#>  5 NZ585Y… 2019-06-15… 2019-06-1… {HIDDEN}   {HIDDEN}    <named lis… <list…
#>  6 CT6TJE… 2019-07-02… 2019-07-0… {HIDDEN}   {HIDDEN}    <named lis… <list…
#>  7 T70ZBH… 2019-06-12… 2019-06-1… {HIDDEN}   {HIDDEN}    <named lis… <list…
#>  8 GP4YJZ… 2019-06-23… 2019-06-2… {HIDDEN}   {HIDDEN}    <named lis… <list…
#>  9 9SN9EG… 2019-07-06… 2019-07-0… {HIDDEN}   {HIDDEN}    <named lis… <list…
#> 10 JBJ5ZC… 2019-07-07… 2019-07-0… {HIDDEN}   {HIDDEN}    <named lis… <list…
#> # … with 3,235 more rows

# show the groups that each customer belongs to
# filter to the groups designated automatically by Square
sq_extract_cust_groups(our_customers) %>%
  filter(grepl("^CQ689YH4KCJMY", groups.id))
#> # A tibble: 1,248 x 3
#>    id                         groups.id                 groups.name      
#>    <chr>                      <chr>                     <chr>            
#>  1 3AXCBD5Q5N260RPKKKBJW8348R CQ689YH4KCJMY.LOYALTY_ALL Loyalty Enrollees
#>  2 PRFAB2CABS4YCYQHHAPDQE5HHW CQ689YH4KCJMY.LOYAL       Regulars         
#>  3 PRFAB2CABS4YCYQHHAPDQE5HHW CQ689YH4KCJMY.LOYALTY_ALL Loyalty Enrollees
#>  4 T70ZBHDNXD3F4TY9GX7C4XVD98 CQ689YH4KCJMY.LOYAL       Regulars         
#>  5 9SN9EG2AP900PVTA59BWWFV4PW CQ689YH4KCJMY.REACHABLE   Reachable        
#>  6 9SN9EG2AP900PVTA59BWWFV4PW CQ689YH4KCJMY.LOYALTY_ALL Loyalty Enrollees
#>  7 KGVMB2R5K14RRJT3D4J6WAEMAM CQ689YH4KCJMY.LOYAL       Regulars         
#>  8 RVNVNEWGMH5SWZAQ21376P1RR8 CQ689YH4KCJMY.LOYAL       Regulars         
#>  9 RVNVNEWGMH5SWZAQ21376P1RR8 CQ689YH4KCJMY.REACHABLE   Reachable        
#> 10 F5AB5VQZVX034TGNNS3X6T9Q78 CQ689YH4KCJMY.REACHABLE   Reachable        
#> # … with 1,238 more rows
```
…
