Getting Started • squareupr
…
# Using OAuth 2.0 authentication
sq_auth()

Get Transactions

Transactions are organized by location. With the v2 Locations endpoint you can pull information regarding all locations first to obtain the location IDs. Then with the sq_list_transactions() function you can provide the location and timeframe to search. The function defaults to pulling transactions from the previous day using Sys.Date() - 1. Once you obtain the transactions the tenders field lists all methods of payment used to pay in the transaction.

# list all locations
our_locations <- sq_list_locations()
our_transactions <- sq_list_transactions(location = our_locations$id[2], 
                                         begin_time = as.Date('2018-05-11'), 
                                         end_time = as.Date('2018-05-12'))
our_transactions
#> # A tibble: 245 x 6
#>    id          location_id  created_at    tenders product client_id       
#>    <chr>       <chr>        <chr>         <list>  <chr>   <chr>           
#>  1 bUjFGVjBvN… DRDCJ2X8E2P… 2018-05-12T0… <list … REGIST… D5528FBA-E5DE-4…
#>  2 5PZP31N5Zs… DRDCJ2X8E2P… 2018-05-11T2… <list … REGIST… A3A1FF51-325A-4…
#>  3 BTrGydD6he… DRDCJ2X8E2P… 2018-05-11T2… <list … REGIST… 2B3D32EB-8E58-4…
#>  4 XsqOAHl68z… DRDCJ2X8E2P… 2018-05-11T2… <list … REGIST… C50AF3D7-BE32-4…
#>  5 vmLRzrwByS… DRDCJ2X8E2P… 2018-05-11T2… <list … REGIST… 52E40E1B-2333-4…
#>  6 pTbzQApZW7… DRDCJ2X8E2P… 2018-05-11T2… <list … REGIST… 962766FF-1436-4…
#>  7 lnE20zklpP… DRDCJ2X8E2P… 2018-05-11T2… <list … REGIST… A02191CC-9AC9-4…
#>  8 DSumrqQW0L… DRDCJ2X8E2P… 2018-05-11T2… <list … REGIST… 1135FF4F-9B89-4…
#>  9 tPwFXetIwe… DRDCJ2X8E2P… 2018-05-11T2… <list … REGIST… 0D95E79D-B44C-4…
#> 10 bqUuFrzH71… DRDCJ2X8E2P… 2018-05-11T2… <list … REGIST… 48FD6A49-80A9-4…
#> # ... with 235 more rows

Get Customers

Once you pull data about transactions you can take the customer_id from the transaction tenders field and match that up with customer details. In Square customers can be placed into groups that allow for the analysis of transactions at a group-level.

# list all customers
our_customers <- sq_list_customers()
our_customers$given_name <- "{HIDDEN}"
our_customers$family_name <- "{HIDDEN}"
our_customers %>% select(id, created_at, updated_at, 
                         given_name, family_name, preferences, groups)
#> # A tibble: 11,796 x 7
#>    id     created_at  updated_at given_name family_name preferences groups
#>    <chr>  <chr>       <chr>      <chr>      <chr>       <list>      <list>
#>  1 M1RBD… 2017-01-09… 2018-02-0… {HIDDEN}   {HIDDEN}    <list [1]>  <list…
#>  2 56EB9… 2017-12-11… 2018-02-0… {HIDDEN}   {HIDDEN}    <list [1]>  <NULL>
#>  3 Z2HYX… 2017-12-19… 2018-02-0… {HIDDEN}   {HIDDEN}    <list [1]>  <NULL>
#>  4 017CX… 2017-10-04… 2018-02-0… {HIDDEN}   {HIDDEN}    <list [1]>  <NULL>
#>  5 58MK9… 2017-11-16… 2018-02-0… {HIDDEN}   {HIDDEN}    <list [1]>  <list…
#>  6 T5HXZ… 2018-01-02… 2018-02-0… {HIDDEN}   {HIDDEN}    <list [1]>  <NULL>
#>  7 MBSJA… 2017-05-31… 2017-05-3… {HIDDEN}   {HIDDEN}    <list [1]>  <list…
#>  8 ECVG5… 2017-09-30… 2018-03-1… {HIDDEN}   {HIDDEN}    <list [1]>  <list…
#>  9 H8BZA… 2017-07-06… 2018-02-1… {HIDDEN}   {HIDDEN}    <list [1]>  <list…
#> 10 ZCBZJ… 2018-01-16… 2018-03-0… {HIDDEN}   {HIDDEN}    <list [1]>  <list…
#> # ... with 11,786 more rows

# show the groups that each customer belongs to
# filter to the groups designated automatically by Square
sq_extract_cust_groups(our_customers) %>%
  filter(grepl("^CQ689YH4KCJMY", groups.id))
#> # A tibble: 13,440 x 3
#>    id                         groups.id                 groups.name       
#>    <chr>                      <chr>                     <chr>             
#>  1 M1RBDFRK7S1Q1EP6EZFJFV3CBW CQ689YH4KCJMY.LOYALTY_ALL Loyalty Participa…
#>  2 58MK9F1HQ5447D1QZDX60NHTP4 CQ689YH4KCJMY.CHURN_RISK  Lapsed            
#>  3 58MK9F1HQ5447D1QZDX60NHTP4 CQ689YH4KCJMY.REACHABLE   Reachable         
#>  4 MBSJA4QV4WX6N2XV8WV9VJJTG8 CQ689YH4KCJMY.LOYALTY_ALL Loyalty Participa…
#>  5 MBSJA4QV4WX6N2XV8WV9VJJTG8 CQ689YH4KCJMY.REACHABLE   Reachable         
#>  6 ZCBZJ234217KTV812WX4DP2404 CQ689YH4KCJMY.REACHABLE   Reachable         
#>  7 FKEMR8KZCN3BH98RV78PKHKQ1R CQ689YH4KCJMY.LOYALTY_ALL Loyalty Participa…
#>  8 FKEMR8KZCN3BH98RV78PKHKQ1R CQ689YH4KCJMY.LOYAL       Regulars          
#>  9 78VMJPJNK959AHH0ZQPXDXEG3C CQ689YH4KCJMY.LOYALTY_ALL Loyalty Participa…
#> 10 QASM1G54VX0QN2S15YS6KHEFCC CQ689YH4KCJMY.LOYAL       Regulars          
#> # ... with 13,430 more rows
…
